;Site;Sexe;FM1;TM6;RM1;Hypoplasie;Presence_parure;Orientation_corps
A_1;A;M;420,11;51,75;251,15;Non;Non;Nord
A_2;A;M;508,93;57,98;255,82;Non;Non;Nord
A_3;A;M;465,19;53,36;251,41;Non;Non;Est
A_4;A;F;425,74;49,27;244,36;Oui;Oui;Ouest
A_5;A;M;465,42;59,53;251,21;Non;Non;Est
A_6;A;M;426,22;52,55;242,83;Non;Non;Est
A_7;A;F;398,30;46,56;224,69;Non;Oui;Ouest
A_8;A;M;450,92;55,42;249,53;Non;Non;Est
A_9;A;M;454,31;54,35;257,10;Non;Non;Nord
A_10;A;F;430,52;44,30;219,32;Oui;Non;Sud
A_11;A;F;397,95;48,37;229,08;Non;Oui;Ouest
A_12;A;F;448,70;47,97;216,34;Non;Oui;Nord
A_13;A;M;463,84;51,14;240,88;Non;Oui;Ouest
A_14;A;F;425,44;46,06;225,69;Non;Non;Sud
A_15;A;F;440,27;46,72;234,35;Oui;Oui;Sud
A_16;A;M;444,49;57,54;241,84;Non;Non;Est
A_17;A;F;393,70;49,25;229,86;Non;Oui;Ouest
A_18;A;M;426,48;48,84;249,53;Non;Non;Est
A_19;A;M;438,76;54,90;230,72;Non;Non;Nord
A_20;A;M;439,14;51,52;255,00;Non;Oui;Est
A_21;A;M;480,23;54,09;;Non;Non;Est
B_1;B;M;425,34;47,75;230,28;Non;Non;Ouest
B_2;B;M;443,98;51,70;221,39;Oui;Non;Est
B_3;B;M;427,43;42,89;232,17;Oui;Non;Est
B_4;B;F;395,70;42,41;;Oui;Oui;Sud
B_5;B;F;;36,13;223,80;Non;Non;Est
B_6;B;F;402,98;43,17;208,35;Non;Non;Ouest
B_7;B;;428,41;40,66;200,69;Non;Non;Sud
B_8;B;F;429,51;44,01;221,79;Non;Oui;Sud
B_9;B;F;408,80;46,77;226,66;Non;Non;Ouest
B_10;B;F;393,71;42,71;207,32;Non;Non;Ouest
B_11;B;F;;41,91;226,28;Non;Oui;Sud
B_12;B;F;393,67;42,33;222,92;Non;Non;Sud
B_13;B;M;431,00;50,27;235,44;Non;Non;Nord
B_14;B;F;410,32;40,85;209,79;Non;Oui;Ouest
B_15;B;M;425,14;48,92;238,75;Non;Oui;Est
B_16;B;F;401,72;37,34;229,78;Non;Oui;Nord
B_17;B;M;407,42;49,03;235,82;Non;Oui;Est
B_18;B;F;445,19;42,33;210,01;Non;Oui;Est
B_19;B;M;;47,32;243,14;Non;Non;Nord
B_20;B;M;;47,97;239,10;Non;Non;Ouest
B_21;B;M;457,96;50,14;220,69;Non;Non;Sud
B_22;B;M;443,87;43,15;244,17;Non;Non;Est
